<?xml version="1.0" encoding="UTF-8"?>
<svg width="55px" height="43px" viewBox="0 0 55 43" version="1.1" xmlns="http://www.w3.org/2000/svg" xmlns:xlink="http://www.w3.org/1999/xlink">
    <!-- Generator: Sketch 43 (38999) - http://www.bohemiancoding.com/sketch -->
    <title>Light</title>
    <desc>Created with Sketch.</desc>
    <defs></defs>
    <g id="WIREFRAME" stroke="none" stroke-width="1" fill="none" fill-rule="evenodd">
        <g id="RECYCLING-Desktop" transform="translate(-513.000000, -2943.000000)" fill="#FFFFFF">
            <g id="P1-COFFEE-QUALITY" transform="translate(0.000000, 2522.000000)">
                <g id="CONTENT">
                    <g id="OXYGEN" transform="translate(502.000000, 409.000000)">
                        <g id="Oxygen" transform="translate(4.000000, 0.000000)">
                            <path d="M32.6532151,26.6183507 L8.27926163,26.6183507 C7.57257558,26.6183507 7.00019186,26.0537543 7.00019186,25.3580908 C7.00019186,24.6624273 7.57257558,24.0978309 8.27926163,24.0978309 L32.6532151,24.0978309 C35.2062384,24.0978309 37.2834477,22.0511688 37.2834477,19.5363201 C37.2834477,17.0208413 35.2062384,14.9741792 32.6532151,14.9741792 C30.1001919,14.9741792 28.0236221,17.0208413 28.0236221,19.5363201 C28.0236221,20.2319836 27.4505988,20.79658 26.7445523,20.79658 C26.0378663,20.79658 25.4654826,20.2319836 25.4654826,19.5363201 C25.4654826,15.6307746 28.6900174,12.4536594 32.6532151,12.4536594 C36.6170523,12.4536594 39.8415872,15.6307746 39.8415872,19.5363201 C39.8415872,23.4412355 36.6170523,26.6183507 32.6532151,26.6183507" id="Fill-1"></path>
                            <path d="M54.8120756,35.3518889 L19.3581802,35.3518889 C18.6521337,35.3518889 18.0791105,34.7872925 18.0791105,34.091629 C18.0791105,33.3953354 18.6521337,32.8313691 19.3581802,32.8313691 L54.8120756,32.8313691 C57.3650988,32.8313691 59.4416686,30.784707 59.4416686,28.2692282 C59.4416686,25.7537494 57.3650988,23.7077174 54.8120756,23.7077174 C52.2590523,23.7077174 50.1824826,25.7537494 50.1824826,28.2692282 C50.1824826,28.9648917 49.6094593,29.5294881 48.9034128,29.5294881 C48.1967267,29.5294881 47.624343,28.9648917 47.624343,28.2692282 C47.624343,24.3643128 50.8488779,21.1871976 54.8120756,21.1871976 C58.7752733,21.1871976 61.9998081,24.3643128 61.9998081,28.2692282 C61.9998081,32.1747737 58.7752733,35.3518889 54.8120756,35.3518889" id="Fill-4"></path>
                            <path d="M44.4715,55.0009794 C40.5083023,55.0009794 37.2837674,51.8238641 37.2837674,47.9189488 C37.2837674,47.2226552 37.8561512,46.6586889 38.5628372,46.6586889 C39.2688837,46.6586889 39.841907,47.2226552 39.841907,47.9189488 C39.841907,50.4344276 41.9184767,52.4804596 44.4715,52.4804596 C47.0245233,52.4804596 49.101093,50.4344276 49.101093,47.9189488 C49.101093,45.40347 47.0245233,43.3568079 44.4715,43.3568079 L13.4495814,43.3568079 C12.7435349,43.3568079 12.1705116,42.7922114 12.1705116,42.096548 C12.1705116,41.4002544 12.7435349,40.836288 13.4495814,40.836288 L44.4715,40.836288 C48.4346977,40.836288 51.6592326,44.0134033 51.6592326,47.9189488 C51.6592326,51.8238641 48.4346977,55.0009794 44.4715,55.0009794" id="Fill-6"></path>
                        </g>
                    </g>
                </g>
            </g>
        </g>
    </g>
</svg>