<svg xmlns="http://www.w3.org/2000/svg" viewBox="0 0 100 100">
    <g class="icon-stroke">
        <polyline points="3.2,40.7 49.9,9.1 96.8,40.7 "/>
        <polyline points="12.7,34.3 12.7,90.9 89.3,90.9 89.3,35.6 "/>
        <path stroke-miterlimit="1" d="M30.5,38.5c1.1-0.9,2.1-1.5,3.2-2.1l1.7-0.8c0.6-0.2,1.3-0.4,1.7-0.6c2.3-0.9,4.9-1.3,7.2-1.5c2.3,0,4.9,0.2,7,0.9c2.3,0.6,4.5,1.7,6.4,3c1.9,1.3,3.6,2.8,4.9,4.5c0.9,1.1,1.5,2.1,2.1,3.2c0.2,0.4,2.2,5,2.3,5.9h-4.5l10.8,10.8l10.6-10.8h-4.7c-1.5-6.2-5.1-11.7-9.8-15.7c-4.9-4.3-10.8-6.6-16.8-7.2c-3-0.2-6,0-8.9,0.6c-3,0.6-5.5,1.7-8.1,3.2c-0.6,0.4-3.4,2.5-3.4,2.5c-1.1,1.1-3,3-3,3s-1.7,2.1-2.5,3.4c-0.6,1.3-1.3,2.3-1.9,3.6c0.9-1.1,1.7-2.1,2.6-3C28.4,40.2,29.5,39.1,30.5,38.5z"/>
    </g>
    <path class="icon-fill" d="M69.2,75.2c-0.4,0.4-1.1,0.9-1.5,1.1L66,77.4c-1.1,0.6-2.3,1.1-3.4,1.5c-4.7,1.7-9.8,1.9-14.2,0.6c-2.3-0.6-4.5-1.5-6.4-2.8c-0.9-0.6-1.9-1.3-2.8-1.9c-0.9-0.7-1.7-1.5-2.3-2.3c-1.5-1.7-2.5-3.6-3.4-5.5c-0.4-1.3-0.9-2.3-1.1-3.4h4.7L26.1,52.9L15.9,63.5h4.7c1.7,6.2,5.3,11.9,10,15.9c1.3,1.1,2.5,1.9,3.8,2.8s2.8,1.5,4.3,2.1c3,1.1,6,1.9,8.9,2.1c6,0.4,11.9-1.1,16.8-4c1.3-0.6,2.3-1.7,3.4-2.6l1.5-1.5c0.4-0.4,0.8-1.1,1.5-1.5l0.6-0.9l0.6-0.8c0.4-0.6,1.3-1.9,1.7-2.8l0.4-0.6c0.4-0.6,0.6-1.3,0.9-1.9C73.3,71.8,71.3,73.8,69.2,75.2z"/>
</svg>
